Projeto2/simulation/qsim/Processador.msim.vcd
$comment
	File created using the following command:
		vcd file Processador.msim.vcd -direction
$end
$date
	Sat May 26 17:16:05 2018
$end
$version
	ModelSim Version 10.3d
$end
$timescale
	1ps
$end

$scope module EX_MEM_vlg_vec_tst $end
$var reg 5 ! CINCO [4:0] $end
$var reg 1 " CLK $end
$var reg 1 # CLRN $end
$var reg 1 $ ENA $end
$var reg 3 % M [2:0] $end
$var reg 32 & ULA [31:0] $end
$var reg 2 ' WB [1:0] $end
$var reg 1 ( ZERO $end
$var wire 1 ) OUT_CINCO [4] $end
$var wire 1 * OUT_CINCO [3] $end
$var wire 1 + OUT_CINCO [2] $end
$var wire 1 , OUT_CINCO [1] $end
$var wire 1 - OUT_CINCO [0] $end
$var wire 1 . OUT_M [2] $end
$var wire 1 / OUT_M [1] $end
$var wire 1 0 OUT_M [0] $end
$var wire 1 1 OUT_ULA [31] $end
$var wire 1 2 OUT_ULA [30] $end
$var wire 1 3 OUT_ULA [29] $end
$var wire 1 4 OUT_ULA [28] $end
$var wire 1 5 OUT_ULA [27] $end
$var wire 1 6 OUT_ULA [26] $end
$var wire 1 7 OUT_ULA [25] $end
$var wire 1 8 OUT_ULA [24] $end
$var wire 1 9 OUT_ULA [23] $end
$var wire 1 : OUT_ULA [22] $end
$var wire 1 ; OUT_ULA [21] $end
$var wire 1 < OUT_ULA [20] $end
$var wire 1 = OUT_ULA [19] $end
$var wire 1 > OUT_ULA [18] $end
$var wire 1 ? OUT_ULA [17] $end
$var wire 1 @ OUT_ULA [16] $end
$var wire 1 A OUT_ULA [15] $end
$var wire 1 B OUT_ULA [14] $end
$var wire 1 C OUT_ULA [13] $end
$var wire 1 D OUT_ULA [12] $end
$var wire 1 E OUT_ULA [11] $end
$var wire 1 F OUT_ULA [10] $end
$var wire 1 G OUT_ULA [9] $end
$var wire 1 H OUT_ULA [8] $end
$var wire 1 I OUT_ULA [7] $end
$var wire 1 J OUT_ULA [6] $end
$var wire 1 K OUT_ULA [5] $end
$var wire 1 L OUT_ULA [4] $end
$var wire 1 M OUT_ULA [3] $end
$var wire 1 N OUT_ULA [2] $end
$var wire 1 O OUT_ULA [1] $end
$var wire 1 P OUT_ULA [0] $end
$var wire 1 Q OUT_WB [1] $end
$var wire 1 R OUT_WB [0] $end
$var wire 1 S OUT_ZERO $end
$var wire 1 T sampler $end

$scope module i1 $end
$var wire 1 U gnd $end
$var wire 1 V vcc $end
$var wire 1 W unknown $end
$var tri1 1 X devclrn $end
$var tri1 1 Y devpor $end
$var tri1 1 Z devoe $end
$var wire 1 [ ~QUARTUS_CREATED_GND~I_combout $end
$var wire 1 \ CLK~input_o $end
$var wire 1 ] CLK~inputCLKENA0_outclk $end
$var wire 1 ^ ZERO~input_o $end
$var wire 1 _ CLRN~input_o $end
$var wire 1 ` ENA~input_o $end
$var wire 1 a inst3~q $end
$var wire 1 b FLIPFLOP~feeder_combout $end
$var wire 1 c FLIPFLOP~q $end
$var wire 1 d CINCO[4]~input_o $end
$var wire 1 e inst5|inst9~feeder_combout $end
$var wire 1 f inst5|inst9~q $end
$var wire 1 g inst8|inst9~feeder_combout $end
$var wire 1 h inst8|inst9~q $end
$var wire 1 i CINCO[3]~input_o $end
$var wire 1 j inst5|inst8~feeder_combout $end
$var wire 1 k inst5|inst8~q $end
$var wire 1 l inst8|inst8~feeder_combout $end
$var wire 1 m inst8|inst8~q $end
$var wire 1 n CINCO[2]~input_o $end
$var wire 1 o inst5|inst7~feeder_combout $end
$var wire 1 p inst5|inst7~q $end
$var wire 1 q inst8|inst7~feeder_combout $end
$var wire 1 r inst8|inst7~q $end
$var wire 1 s CINCO[1]~input_o $end
$var wire 1 t inst5|inst6~feeder_combout $end
$var wire 1 u inst5|inst6~q $end
$var wire 1 v inst8|inst6~feeder_combout $end
$var wire 1 w inst8|inst6~q $end
$var wire 1 x CINCO[0]~input_o $end
$var wire 1 y inst5|inst~q $end
$var wire 1 z inst8|inst~feeder_combout $end
$var wire 1 { inst8|inst~q $end
$var wire 1 | M[2]~input_o $end
$var wire 1 } inst1|inst3~feeder_combout $end
$var wire 1 ~ inst1|inst3~q $end
$var wire 1 !! inst9|inst3~feeder_combout $end
$var wire 1 "! inst9|inst3~q $end
$var wire 1 #! M[1]~input_o $end
$var wire 1 $! inst1|inst1~feeder_combout $end
$var wire 1 %! inst1|inst1~q $end
$var wire 1 &! inst9|inst1~q $end
$var wire 1 '! M[0]~input_o $end
$var wire 1 (! inst1|inst~q $end
$var wire 1 )! inst9|inst~q $end
$var wire 1 *! ULA[31]~input_o $end
$var wire 1 +! inst|inst31~feeder_combout $end
$var wire 1 ,! inst|inst31~q $end
$var wire 1 -! inst6|inst31~feeder_combout $end
$var wire 1 .! inst6|inst31~q $end
$var wire 1 /! ULA[30]~input_o $end
$var wire 1 0! inst|inst30~feeder_combout $end
$var wire 1 1! inst|inst30~q $end
$var wire 1 2! inst6|inst30~feeder_combout $end
$var wire 1 3! inst6|inst30~q $end
$var wire 1 4! ULA[29]~input_o $end
$var wire 1 5! inst|inst29~q $end
$var wire 1 6! inst6|inst29~feeder_combout $end
$var wire 1 7! inst6|inst29~q $end
$var wire 1 8! ULA[28]~input_o $end
$var wire 1 9! inst|inst28~feeder_combout $end
$var wire 1 :! inst|inst28~q $end
$var wire 1 ;! inst6|inst28~q $end
$var wire 1 <! ULA[27]~input_o $end
$var wire 1 =! inst|inst27~q $end
$var wire 1 >! inst6|inst27~feeder_combout $end
$var wire 1 ?! inst6|inst27~q $end
$var wire 1 @! ULA[26]~input_o $end
$var wire 1 A! inst|inst26~q $end
$var wire 1 B! inst6|inst26~feeder_combout $end
$var wire 1 C! inst6|inst26~q $end
$var wire 1 D! ULA[25]~input_o $end
$var wire 1 E! inst|inst25~q $end
$var wire 1 F! inst6|inst25~feeder_combout $end
$var wire 1 G! inst6|inst25~q $end
$var wire 1 H! ULA[24]~input_o $end
$var wire 1 I! inst|inst24~q $end
$var wire 1 J! inst6|inst24~feeder_combout $end
$var wire 1 K! inst6|inst24~q $end
$var wire 1 L! ULA[23]~input_o $end
$var wire 1 M! inst|inst23~q $end
$var wire 1 N! inst6|inst23~feeder_combout $end
$var wire 1 O! inst6|inst23~q $end
$var wire 1 P! ULA[22]~input_o $end
$var wire 1 Q! inst|inst22~q $end
$var wire 1 R! inst6|inst22~feeder_combout $end
$var wire 1 S! inst6|inst22~q $end
$var wire 1 T! ULA[21]~input_o $end
$var wire 1 U! inst|inst21~feeder_combout $end
$var wire 1 V! inst|inst21~q $end
$var wire 1 W! inst6|inst21~feeder_combout $end
$var wire 1 X! inst6|inst21~q $end
$var wire 1 Y! ULA[20]~input_o $end
$var wire 1 Z! inst|inst20~q $end
$var wire 1 [! inst6|inst20~feeder_combout $end
$var wire 1 \! inst6|inst20~q $end
$var wire 1 ]! ULA[19]~input_o $end
$var wire 1 ^! inst|inst19~feeder_combout $end
$var wire 1 _! inst|inst19~q $end
$var wire 1 `! inst6|inst19~feeder_combout $end
$var wire 1 a! inst6|inst19~q $end
$var wire 1 b! ULA[18]~input_o $end
$var wire 1 c! inst|inst18~q $end
$var wire 1 d! inst6|inst18~feeder_combout $end
$var wire 1 e! inst6|inst18~q $end
$var wire 1 f! ULA[17]~input_o $end
$var wire 1 g! inst|inst17~feeder_combout $end
$var wire 1 h! inst|inst17~q $end
$var wire 1 i! inst6|inst17~feeder_combout $end
$var wire 1 j! inst6|inst17~q $end
$var wire 1 k! ULA[16]~input_o $end
$var wire 1 l! inst|inst16~feeder_combout $end
$var wire 1 m! inst|inst16~q $end
$var wire 1 n! inst6|inst16~feeder_combout $end
$var wire 1 o! inst6|inst16~q $end
$var wire 1 p! ULA[15]~input_o $end
$var wire 1 q! inst|inst15~q $end
$var wire 1 r! inst6|inst15~feeder_combout $end
$var wire 1 s! inst6|inst15~q $end
$var wire 1 t! ULA[14]~input_o $end
$var wire 1 u! inst|inst14~feeder_combout $end
$var wire 1 v! inst|inst14~q $end
$var wire 1 w! inst6|inst14~feeder_combout $end
$var wire 1 x! inst6|inst14~q $end
$var wire 1 y! ULA[13]~input_o $end
$var wire 1 z! inst|inst13~feeder_combout $end
$var wire 1 {! inst|inst13~q $end
$var wire 1 |! inst6|inst13~feeder_combout $end
$var wire 1 }! inst6|inst13~q $end
$var wire 1 ~! ULA[12]~input_o $end
$var wire 1 !" inst|inst12~feeder_combout $end
$var wire 1 "" inst|inst12~q $end
$var wire 1 #" inst6|inst12~feeder_combout $end
$var wire 1 $" inst6|inst12~q $end
$var wire 1 %" ULA[11]~input_o $end
$var wire 1 &" inst|inst11~feeder_combout $end
$var wire 1 '" inst|inst11~q $end
$var wire 1 (" inst6|inst11~feeder_combout $end
$var wire 1 )" inst6|inst11~q $end
$var wire 1 *" ULA[10]~input_o $end
$var wire 1 +" inst|inst10~q $end
$var wire 1 ," inst6|inst10~feeder_combout $end
$var wire 1 -" inst6|inst10~q $end
$var wire 1 ." ULA[9]~input_o $end
$var wire 1 /" inst|inst9~feeder_combout $end
$var wire 1 0" inst|inst9~q $end
$var wire 1 1" inst6|inst9~feeder_combout $end
$var wire 1 2" inst6|inst9~q $end
$var wire 1 3" ULA[8]~input_o $end
$var wire 1 4" inst|inst8~feeder_combout $end
$var wire 1 5" inst|inst8~q $end
$var wire 1 6" inst6|inst8~feeder_combout $end
$var wire 1 7" inst6|inst8~q $end
$var wire 1 8" ULA[7]~input_o $end
$var wire 1 9" inst|inst7~q $end
$var wire 1 :" inst6|inst7~feeder_combout $end
$var wire 1 ;" inst6|inst7~q $end
$var wire 1 <" ULA[6]~input_o $end
$var wire 1 =" inst|inst6~feeder_combout $end
$var wire 1 >" inst|inst6~q $end
$var wire 1 ?" inst6|inst6~feeder_combout $end
$var wire 1 @" inst6|inst6~q $end
$var wire 1 A" ULA[5]~input_o $end
$var wire 1 B" inst|inst5~q $end
$var wire 1 C" inst6|inst5~feeder_combout $end
$var wire 1 D" inst6|inst5~q $end
$var wire 1 E" ULA[4]~input_o $end
$var wire 1 F" inst|inst4~feeder_combout $end
$var wire 1 G" inst|inst4~q $end
$var wire 1 H" inst6|inst4~feeder_combout $end
$var wire 1 I" inst6|inst4~q $end
$var wire 1 J" ULA[3]~input_o $end
$var wire 1 K" inst|inst3~q $end
$var wire 1 L" inst6|inst3~feeder_combout $end
$var wire 1 M" inst6|inst3~q $end
$var wire 1 N" ULA[2]~input_o $end
$var wire 1 O" inst|inst2~feeder_combout $end
$var wire 1 P" inst|inst2~q $end
$var wire 1 Q" inst6|inst2~feeder_combout $end
$var wire 1 R" inst6|inst2~q $end
$var wire 1 S" ULA[1]~input_o $end
$var wire 1 T" inst|inst1~feeder_combout $end
$var wire 1 U" inst|inst1~q $end
$var wire 1 V" inst6|inst1~feeder_combout $end
$var wire 1 W" inst6|inst1~q $end
$var wire 1 X" ULA[0]~input_o $end
$var wire 1 Y" inst|inst~feeder_combout $end
$var wire 1 Z" inst|inst~q $end
$var wire 1 [" inst6|inst~feeder_combout $end
$var wire 1 \" inst6|inst~q $end
$var wire 1 ]" WB[1]~input_o $end
$var wire 1 ^" inst2|inst1~feeder_combout $end
$var wire 1 _" inst2|inst1~q $end
$var wire 1 `" inst10|inst1~feeder_combout $end
$var wire 1 a" inst10|inst1~q $end
$var wire 1 b" WB[0]~input_o $end
$var wire 1 c" inst2|inst~feeder_combout $end
$var wire 1 d" inst2|inst~q $end
$var wire 1 e" inst10|inst~feeder_combout $end
$var wire 1 f" inst10|inst~q $end
$upscope $end
$upscope $end
$enddefinitions $end
#0
$dumpvars
b11100 !
0"
1#
1$
b111 %
b1001001101000011100001111001100 &
b1 '
1(
0-
0,
0+
0*
0)
00
0/
0.
0P
0O
0N
0M
0L
0K
0J
0I
0H
0G
0F
0E
0D
0C
0B
0A
0@
0?
0>
0=
0<
0;
0:
09
08
07
06
05
04
03
02
01
0R
0Q
0S
xT
0U
1V
xW
1X
1Y
1Z
0[
0\
0]
1^
1_
1`
0a
0b
0c
1d
1e
0f
0g
0h
1i
1j
0k
0l
0m
1n
1o
0p
0q
0r
0s
0t
0u
0v
0w
0x
0y
0z
0{
1|
1}
0~
0!!
0"!
1#!
1$!
0%!
0&!
1'!
0(!
0)!
0*!
0+!
0,!
0-!
0.!
1/!
10!
01!
02!
03!
04!
05!
06!
07!
08!
09!
0:!
0;!
1<!
0=!
0>!
0?!
0@!
0A!
0B!
0C!
0D!
0E!
0F!
0G!
1H!
0I!
0J!
0K!
1L!
0M!
0N!
0O!
0P!
0Q!
0R!
0S!
1T!
1U!
0V!
0W!
0X!
0Y!
0Z!
0[!
0\!
0]!
0^!
0_!
0`!
0a!
0b!
0c!
0d!
0e!
0f!
0g!
0h!
0i!
0j!
1k!
1l!
0m!
0n!
0o!
1p!
0q!
0r!
0s!
1t!
1u!
0v!
0w!
0x!
0y!
0z!
0{!
0|!
0}!
0~!
0!"
0""
0#"
0$"
0%"
0&"
0'"
0("
0)"
0*"
0+"
0,"
0-"
1."
1/"
00"
01"
02"
13"
14"
05"
06"
07"
18"
09"
0:"
0;"
1<"
1="
0>"
0?"
0@"
0A"
0B"
0C"
0D"
0E"
0F"
0G"
0H"
0I"
1J"
0K"
0L"
0M"
1N"
1O"
0P"
0Q"
0R"
0S"
0T"
0U"
0V"
0W"
0X"
0Y"
0Z"
0["
0\"
0]"
0^"
0_"
0`"
0a"
1b"
1c"
0d"
0e"
0f"
$end
#50000
b11110 !
1"
b1011001101000011100001111001100 &
b1011011101000011100001111001100 &
b1011010101000011100001111001100 &
b1011010001000011100001111001100 &
b1011010011000011100001111001100 &
b1011010010000011100001111001100 &
b1011010010010011100001111001100 &
b1011010010011011100001111001100 &
b1011010010011111100001111001100 &
b1011010010011101100001111001100 &
b1011010010011100100001111001100 &
b1011010010011100000001111001100 &
b1011010010011100001001111001100 &
b1011010010011100001101111001100 &
b1011010010011100001111111001100 &
b1011010010011100001110111001100 &
b1011010010011100001110101001100 &
b1011010010011100001110100001100 &
b1011010010011100001110100101100 &
b1011010010011100001110100100100 &
b1011010010011100001110100100101 &
0(
1\
1X"
0J"
1A"
0<"
08"
0."
1*"
1%"
1~!
0t!
0p!
0k!
1f!
1b!
1]!
0T!
1P!
0L!
0H!
1D!
18!
1s
0^
0T
1]
1t
19!
0U!
1^!
1g!
0l!
0u!
1!"
1&"
0/"
0="
1Y"
1d"
1P"
1B"
1>"
15"
10"
1+"
1v!
1m!
1c!
1V!
1Q!
1E!
1=!
11!
1(!
1%!
1~
1p
1k
1f
1g
1l
1q
1!!
12!
1>!
1F!
1R!
1W!
1d!
1n!
1w!
1,"
11"
16"
1?"
1C"
1Q"
1e"
#100000
b10110 !
b10010 !
b10011 !
b11 %
b1 %
b0 %
b11010010011100001110100100101 &
b11010010111100001110100100101 &
b11010010111100011110100100101 &
b11010010111100011110000100101 &
b11 '
b10001 !
0"
b11000010111100011110000100101 &
b11001010111100011110000100101 &
b11001000111100011110000100101 &
b11001001111100011110000100101 &
b11001001111000011110000100101 &
b11001001111010011110000100101 &
b11001001111011011110000100101 &
b11001001111011111110000100101 &
b11001001111011110110000100101 &
b11001001111011110010000100101 &
b11001001111011110000000100101 &
b11001001111011110001000100101 &
b11001001111011110001001100101 &
b11001001111011110001001100100 &
1]"
0X"
1<"
03"
1."
0*"
0%"
0~!
1y!
1t!
1p!
1k!
0f!
1Y!
1T!
0P!
1H!
0D!
0/!
0'!
0#!
0|
1x
0s
0n
0i
0\
1T
0]
0j
0o
0t
0}
0$!
00!
1U!
0g!
1l!
1u!
1z!
0!"
0&"
1/"
04"
1="
0Y"
1^"
#150000
b111001001111011110001001100100 &
b111101001111011110001001100100 &
b111101001111011110001001100000 &
b101101001111011110001001100000 &
b101101001110011110001001100000 &
b101101001110011110001011100000 &
b101101001110011110001011000000 &
b101101001110011110001011001000 &
b10101 !
b100 %
b101101001010011110001011001000 &
b101101001010011100001011001000 &
b101101001010011100001111001000 &
b1 '
b10111 !
1"
b101100001010011100001111001000 &
b101100001010010100001111001000 &
b101100001010010000001111001000 &
b101100001010010000011111001000 &
b101100001010010000010111001000 &
b101100001010010000010111001001 &
0]"
1|
1s
1n
1X"
0N"
1J"
0A"
18"
13"
0."
1*"
0y!
0t!
0p!
0b!
0Y!
0H!
1@!
08!
14!
1\
0T
1]
09!
0u!
0z!
0/"
14"
0O"
1Y"
1o
1t
1}
0^"
1_"
1K"
0B"
19"
05"
1{!
0c!
1_!
0Q!
0E!
1A!
1:!
15!
01!
0(!
0%!
0~
1y
0p
0k
1f"
1R"
1D"
1@"
17"
12"
1-"
1x!
1o!
1e!
1X!
1S!
1G!
1?!
13!
1)!
1&!
1"!
1r
1m
1h
1)
1*
1+
1.
1/
10
12
15
17
1:
1;
1>
1@
1B
1F
1G
1H
1J
1K
1N
1R
0l
0q
1z
0!!
02!
16!
1B!
0F!
0R!
1`!
0d!
1|!
06"
1:"
0C"
1L"
1`"
#200000
b101100001010010000010111011001 &
b101100001010010000010111011011 &
b101100001000010000010111011011 &
b11111 !
b11110 !
b110 %
b101110001000010000010111011011 &
b101110000000010000010111011011 &
b101110000000000000010111011011 &
b101110000000000000010110011011 &
b101010000000000000010110011011 &
b101010000000000000010110011111 &
b101010000000000000010110010111 &
b11010 !
b10 %
b101010000000000010010110010111 &
b101010000000000010010010010111 &
b11 '
0"
b101010000000000110010010010111 &
b101010000000000110000010010111 &
b101010000000000110001010010111 &
1]"
1#!
0|
0x
0n
1i
1S"
1N"
0J"
1E"
0<"
03"
1."
0*"
1y!
1t!
0k!
0]!
0T!
1D!
0@!
0\
1T
0]
0U!
0^!
0l!
1u!
1z!
1/"
04"
0="
1F"
1O"
1T"
1j
0o
0}
1$!
1^"
#250000
b10101010000000000110001010010111 &
b10100010000000000110001010010111 &
b10100010100000000110001010010111 &
1(
b11 %
b10000010100000000110001010010111 &
b10010010100000000110001010010111 &
b10010010100001000110001010010111 &
b11000 !
b10010011100001000110001010010111 &
b10010011100001001110001010010111 &
b10010011100001001110001010010101 &
b10010011100011001110001010010101 &
b11001 !
b1 %
b10010011101011001110001010010101 &
b10010011101011001110001011010101 &
b10010111101011001110001011010101 &
b10010111101011001110001011010001 &
b11101 !
b10010111101011001110001111010001 &
1"
b10010111101011001010001111010001 &
b10010111101011001010011111010001 &
b10010111101011001010010111010001 &
1^
1x
0s
1n
1'!
0#!
0S"
0N"
1<"
13"
0."
1*"
0t!
1p!
1b!
1]!
1T!
1L!
1H!
1@!
0<!
18!
04!
1*!
1\
0T
1]
1+!
19!
1U!
1^!
0u!
0/"
14"
1="
0O"
0T"
0$!
1o
0t
1Z"
1U"
0K"
1G"
0>"
1q!
0m!
1c!
0_!
0V!
1M!
1I!
1E!
0=!
0:!
05!
1(!
1%!
1u
1k
1a
1a"
1M"
0D"
1;"
07"
1}!
0e!
1a!
0S!
0G!
1C!
1;!
17!
03!
0)!
0&!
0"!
1{
0r
0m
0*
0+
1-
0.
0/
00
02
13
14
16
07
0:
1=
0>
1C
0H
1I
0K
1M
1Q
1b
1l
1v
06!
0>!
1F!
1J!
1N!
0W!
0`!
1d!
0n!
1r!
0?"
1H"
0L"
1V"
1["
#300000
b10 '
b10010111101011101010010111010001 &
b10010111101011101010010101010001 &
b10010111101011101010010101110001 &
b10010111101011101010010101100001 &
b10101 !
b10010101101011101010010101100001 &
b10010101101011111010010101100001 &
b101 %
b10010101101011111000010101100001 &
b10101101011111000010101100001 &
b100 %
b10111 !
b10101101001111000010101100001 &
b10110 !
b110 %
b10101101001111000010101100101 &
b10010 !
b10101101001111000010001100101 &
0"
0'!
1#!
1|
0x
1s
0n
0i
1N"
0E"
1A"
08"
03"
0y!
1k!
1f!
0]!
0D!
0*!
0b"
0\
1T
0]
0c"
0+!
0^!
1g!
1l!
0z!
04"
0F"
1O"
0j
0o
1t
1}
1$!
#350000
b1010101101001111000010001100101 &
b1010101111001111000010001100101 &
b1010101111001111000110001100101 &
b1010101111101111000110001100101 &
b0 '
b1011101111101111000110001100101 &
b1011101011101111000110001100101 &
b1111101011101111000110001100101 &
b1101101011101111000110001100101 &
b1101100011101111000110001100101 &
b1101100011101110000110001100101 &
b1101100010101110000110001100101 &
b1101100010101110000110000100101 &
b1101100010101110000111000100101 &
b1 '
b1101100010101010000111000100101 &
b11010 !
b11101100010101010000111000100101 &
b100 %
b11101100010101010000111000100001 &
b11110 !
1"
0#!
1n
1i
1b"
0]"
0N"
0<"
1."
1%"
0p!
0f!
1Y!
0T!
1P!
0L!
0H!
1<!
08!
14!
1/!
1*!
1\
0T
1]
1+!
10!
09!
0U!
0g!
1&"
1/"
0="
0O"
0^"
1c"
1j
1o
0$!
0d"
0U"
0G"
1B"
1>"
09"
00"
0{!
0v!
0q!
1m!
1h!
1Z!
1V!
1Q!
0M!
0I!
0E!
1=!
1:!
15!
0(!
1~
0y
0k
1\"
1W"
0M"
1I"
0@"
1s!
0o!
1e!
0a!
0X!
1O!
1K!
1G!
0?!
0;!
07!
1)!
1&!
1w
1m
1c
1S
1*
1,
1/
10
03
04
05
17
18
19
0;
0=
1>
0@
1A
0J
1L
0M
1O
1P
0l
0z
1!!
16!
1>!
0F!
0J!
0N!
1R!
1W!
1[!
1i!
1n!
0r!
0w!
0|!
01"
0:"
1?"
1C"
0H"
0V"
0e"
#400000
b11101100010101010001111000100001 &
b11101100010101010001111000100000 &
b11101100010100010001111000100000 &
b11101000010100010001111000100000 &
b11101000010100010001101000100000 &
b11101000010100010001101000110000 &
b11101000010100000001101000110000 &
b101 %
b11100 !
b11101000010100000001101100110000 &
b10101000010100000001101100110000 &
b10101000000100000001101100110000 &
b10101000000100000001001100110000 &
b10101000000000000001001100110000 &
b11 '
b10100000000000000001001100110000 &
b10100000100000000001001100110000 &
b10100001100000000001001100110000 &
b10100001101000000001001100110000 &
b10100001101000000001001101110000 &
b10 '
b100001101000000001001101110000 &
b111 %
b100001101000000001001101110100 &
0"
0b"
1]"
0s
1'!
1#!
0X"
1N"
1E"
1<"
13"
0*"
0%"
1~!
0k!
0b!
0Y!
1T!
0P!
1L!
1H!
0@!
0<!
0/!
0*!
0\
1T
0]
0+!
00!
1U!
0l!
1!"
0&"
14"
1="
1F"
1O"
0Y"
1$!
0t
1^"
0c"
#450000
b100001101000000001001101111100 &
0(
b100001101000000001001101111110 &
b100001101000000001001111111110 &
b11101 !
b1101000000001001111111110 &
b1101000001001001111111110 &
b1101000001001000111111110 &
b11001 !
b1101000001001000111101110 &
b1101000011001000111101110 &
b110 %
b11011 !
b1101000011001000011101110 &
b1000001101000011001000011101110 &
b1000001111000011001000011101110 &
b11000001111000011001000011101110 &
b100 %
b11000001111000011001000011101010 &
1"
0^
0'!
0#!
1x
1s
0n
1S"
0N"
1J"
0E"
18"
03"
0."
1p!
1k!
1P!
04!
1/!
1*!
1\
0T
1]
1+!
10!
1l!
0/"
04"
0F"
0O"
1T"
0o
1t
0$!
0Z"
1K"
1G"
19"
15"
10"
0+"
1""
1q!
0m!
0h!
0c!
0Z!
1M!
1I!
0A!
0=!
0:!
05!
1y
0u
1p
1k
0a
0f"
0W"
0I"
1D"
1@"
0;"
02"
0}!
0x!
0s!
1o!
1j!
1\!
1X!
1S!
0O!
0K!
0G!
1?!
1;!
17!
0)!
1"!
0{
0m
0*
0-
1.
00
13
14
15
07
08
09
1:
1;
1<
1?
1@
0A
0B
0C
0G
0I
1J
1K
0L
0O
0R
0b
1l
1q
0v
1z
06!
0>!
0B!
1J!
1N!
0[!
0d!
0i!
0n!
1r!
1#"
0,"
11"
16"
1:"
1H"
1L"
0["
#500000
b11000011111000011001000011101010 &
b0 %
b11000011111000011011000011101010 &
b11000011111010011011000011101010 &
b11010011111010011011000011101010 &
b10011 !
b11010011111010011010000011101010 &
b11010011111010011010000011101011 &
b11010011111011011010000011101011 &
b11010011111011011010100011101011 &
b11011011111011011010100011101011 &
b11011011011011011010100011101011 &
b11011010011011011010100011101011 &
1(
b10010 !
b11111010011011011010100011101011 &
b11111010011011010010100011101011 &
b11111010011011000010100011101011 &
b10000 !
b11111010011011000010100111101011 &
b10 %
0"
0x
0s
0i
1#!
0|
1X"
13"
1%"
0~!
1y!
0p!
0k!
1b!
1]!
0L!
0H!
1D!
1<!
18!
14!
1^
0\
1T
0]
19!
1^!
0l!
1z!
0!"
1&"
14"
1Y"
0}
1$!
0j
0t
#550000
b11111010011011000110100111101011 &
b11111010011011000110100111001011 &
b11111010011011100110100111001011 &
b11111110011011100110100111001011 &
b11 '
b11111110011011100110100111000011 &
b11111110011011100110101111000011 &
b10100 !
b11111110001011100110101111000011 &
b11101110001011100110101111000011 &
b11101110001011100111101111000011 &
b11101110001010100111101111000011 &
b11100110001010100111101111000011 &
b11100110101010100111101111000011 &
b11100111101010100111101111000011 &
0(
b10101 !
b11000111101010100111101111000011 &
b11000111101010110111101111000011 &
b11000111101010110111101011000011 &
1"
1x
1n
1b"
0J"
0A"
03"
1."
1~!
1t!
1k!
1f!
0b!
0P!
1L!
1H!
1@!
0<!
08!
04!
0^
1\
0T
1]
09!
1g!
1l!
1u!
1!"
1/"
04"
1c"
1o
1Z"
1U"
0P"
0K"
0G"
0B"
00"
1'"
0""
1{!
0q!
1_!
0Q!
1E!
1A!
1:!
11!
1,!
0~
0p
0k
0\"
1M"
1I"
1;"
17"
12"
0-"
1$"
1s!
0o!
0j!
0e!
0\!
1O!
1K!
0C!
0?!
0;!
07!
1{
0w
1r
1m
0c
0S
1*
1+
0,
1-
03
04
05
06
18
19
0<
0>
0?
0@
1A
1D
0F
1G
1H
1I
1L
1M
0P
0l
0q
0!!
1-!
12!
1B!
1F!
0R!
1`!
0r!
1|!
0#"
1("
01"
0C"
0H"
0L"
0Q"
1V"
1["
#600000
b101 !
b11000111101110110111101011000011 &
b1 '
b11000111101110110111101010000011 &
b11000111101110110111101010000001 &
b11000111101110110111101000000001 &
b11000111101110110111101000010001 &
b10000111101110110111101000010001 &
b111101110110111101000010001 &
b111101110110111101000010101 &
b111101100110111101000010101 &
b111101100110111101000010100 &
b111101100110111001000010100 &
b0 %
b111101100110111001000110100 &
b11101100110111001000110100 &
b0 '
b11101100110111000000110100 &
b10011101100110111000000110100 &
b10011101101110111000000110100 &
b11011101101110111000000110100 &
b11010101101110111000000110100 &
1(
b100 !
b11010101101110111000100110100 &
0"
0#!
0b"
0]"
0X"
0S"
1N"
1E"
1A"
0<"
08"
13"
0."
0%"
1b!
0]!
1Y!
0H!
0@!
1<!
18!
0/!
0*!
0x
0d
1^
0\
1T
0]
0e
0+!
00!
19!
0^!
0&"
0/"
14"
0="
1F"
1O"
0T"
0Y"
0^"
0c"
0$!
#650000
b11010100101110111000100110100 &
b1 %
b11000100101110111000100110100 &
b101 %
b11000100101110101000100110100 &
b1100 !
b11000100101111101000100110100 &
b11000100101011101000100110100 &
b11000100101011101000100111100 &
b1000 !
b11000110101011101000100111100 &
b11000110101011100000100111100 &
b11000 !
b11000110001011100000100111100 &
b11000110001011100000101111100 &
b11000110001011100000111111100 &
b1011000110001011100000111111100 &
b11011000110001011100000111111100 &
b11011000110001011100000111111000 &
b11011000110011011100000111111000 &
b11011000110011011100000111111001 &
b111 %
b11011000110011011100001111111001 &
b11001000110011011100001111111001 &
b11001001110011011100001111111001 &
b11001 !
b11001001110011011100001011111001 &
1"
1x
0n
1i
1d
1'!
1#!
1|
1X"
0N"
1J"
1<"
18"
03"
1."
0~!
0y!
1p!
0f!
1]!
0Y!
0T!
1P!
1H!
0D!
08!
1/!
1*!
1\
0T
1]
1+!
10!
09!
0U!
1^!
0g!
0z!
0!"
1/"
04"
1="
0O"
1Y"
1}
1$!
1e
1j
0o
0_"
0Z"
0U"
1P"
1K"
1G"
1B"
0>"
0'"
1""
1v!
1q!
1m!
1h!
1c!
0_!
1Q!
0E!
0A!
1=!
01!
0,!
1(!
0%!
1p
0f
1a
1\"
1W"
0R"
0M"
0I"
0D"
02"
1)"
0$"
1}!
0s!
1a!
0S!
1G!
1C!
1;!
13!
1.!
0"!
0r
0m
0*
0+
0.
11
12
14
16
17
0:
1=
0A
1C
0D
1E
0G
0K
0L
0M
0N
1O
1P
1b
0g
1q
0-!
02!
1>!
0B!
0F!
1R!
0`!
1d!
1i!
1n!
1r!
1w!
1#"
0("
0?"
1C"
1H"
1L"
1Q"
0V"
0["
0`"
#700000
b11001001110011011100011011111001 &
b11011 !
b11001001110011001100011011111001 &
b10 '
b11001001110011001100011011111011 &
b11001001110011001100111011111011 &
b11 '
b11001001110010001100111011111011 &
0(
b11001001111010001100111011111011 &
b11001011111010001100111011111011 &
b11 %
b10011 !
b11001011111010101100111011111011 &
b10111 !
b11001011101010101100111011111011 &
b11001011101010101101111011111011 &
b111 !
b11001011101110101101111011111011 &
b11001011101110101101111010111011 &
b11001011101110101101111000111011 &
b11001011101110101101111000111111 &
b11001011101110101101111000111110 &
b11011011101110101101111000111110 &
b11011010101110101101111000111110 &
b11011010101110101101111100111110 &
0"
0^
0|
1b"
1]"
1s
1n
0i
0d
0X"
1S"
1N"
0<"
08"
13"
1*"
1%"
1~!
0k!
1f!
0b!
1Y!
1T!
0P!
0H!
1D!
18!
0\
1T
0]
19!
1U!
1g!
0l!
1!"
1&"
14"
0="
1O"
1T"
0Y"
0e
0j
1o
1t
1^"
1c"
0}
