Projeto2/simulation/qsim/Processador.msim.vcd
$comment
	File created using the following command:
		vcd file Processador.msim.vcd -direction
$end
$date
	Sat May 26 18:57:34 2018
$end
$version
	ModelSim Version 10.3d
$end
$timescale
	1ps
$end

$scope module COMPARADOR32bits_vlg_vec_tst $end
$var reg 32 ! A [31:0] $end
$var reg 32 " B [31:0] $end
$var wire 1 # OUT_COMPARA $end
$var wire 1 $ sampler $end

$scope module i1 $end
$var wire 1 % gnd $end
$var wire 1 & vcc $end
$var wire 1 ' unknown $end
$var tri1 1 ( devclrn $end
$var tri1 1 ) devpor $end
$var tri1 1 * devoe $end
$var wire 1 + ~QUARTUS_CREATED_GND~I_combout $end
$var wire 1 , B[14]~input_o $end
$var wire 1 - A[14]~input_o $end
$var wire 1 . A[19]~input_o $end
$var wire 1 / B[19]~input_o $end
$var wire 1 0 A[21]~input_o $end
$var wire 1 1 B[21]~input_o $end
$var wire 1 2 inst37~2_combout $end
$var wire 1 3 A[18]~input_o $end
$var wire 1 4 B[13]~input_o $end
$var wire 1 5 A[17]~input_o $end
$var wire 1 6 A[13]~input_o $end
$var wire 1 7 B[18]~input_o $end
$var wire 1 8 B[17]~input_o $end
$var wire 1 9 inst37~1_combout $end
$var wire 1 : A[11]~input_o $end
$var wire 1 ; A[3]~input_o $end
$var wire 1 < B[4]~input_o $end
$var wire 1 = B[11]~input_o $end
$var wire 1 > B[3]~input_o $end
$var wire 1 ? A[4]~input_o $end
$var wire 1 @ inst37~0_combout $end
$var wire 1 A B[1]~input_o $end
$var wire 1 B B[5]~input_o $end
$var wire 1 C A[1]~input_o $end
$var wire 1 D A[5]~input_o $end
$var wire 1 E A[6]~input_o $end
$var wire 1 F B[6]~input_o $end
$var wire 1 G inst37~3_combout $end
$var wire 1 H A[2]~input_o $end
$var wire 1 I B[9]~input_o $end
$var wire 1 J B[2]~input_o $end
$var wire 1 K A[9]~input_o $end
$var wire 1 L inst37~4_combout $end
$var wire 1 M B[10]~input_o $end
$var wire 1 N A[8]~input_o $end
$var wire 1 O B[0]~input_o $end
$var wire 1 P A[0]~input_o $end
$var wire 1 Q A[10]~input_o $end
$var wire 1 R B[8]~input_o $end
$var wire 1 S inst37~5_combout $end
$var wire 1 T B[7]~input_o $end
$var wire 1 U A[7]~input_o $end
$var wire 1 V inst37~6_combout $end
$var wire 1 W A[25]~input_o $end
$var wire 1 X B[26]~input_o $end
$var wire 1 Y B[24]~input_o $end
$var wire 1 Z A[26]~input_o $end
$var wire 1 [ B[25]~input_o $end
$var wire 1 \ A[24]~input_o $end
$var wire 1 ] inst37~9_combout $end
$var wire 1 ^ B[29]~input_o $end
$var wire 1 _ A[29]~input_o $end
$var wire 1 ` A[27]~input_o $end
$var wire 1 a A[30]~input_o $end
$var wire 1 b B[27]~input_o $end
$var wire 1 c B[30]~input_o $end
$var wire 1 d inst37~10_combout $end
$var wire 1 e B[28]~input_o $end
$var wire 1 f A[31]~input_o $end
$var wire 1 g B[31]~input_o $end
$var wire 1 h A[28]~input_o $end
$var wire 1 i inst37~11_combout $end
$var wire 1 j B[12]~input_o $end
$var wire 1 k B[20]~input_o $end
$var wire 1 l A[20]~input_o $end
$var wire 1 m A[12]~input_o $end
$var wire 1 n A[22]~input_o $end
$var wire 1 o B[22]~input_o $end
$var wire 1 p inst37~7_combout $end
$var wire 1 q A[15]~input_o $end
$var wire 1 r B[16]~input_o $end
$var wire 1 s B[15]~input_o $end
$var wire 1 t A[16]~input_o $end
$var wire 1 u B[23]~input_o $end
$var wire 1 v A[23]~input_o $end
$var wire 1 w inst37~8_combout $end
$var wire 1 x inst37~12_combout $end
$var wire 1 y inst37~combout $end
$upscope $end
$upscope $end
$enddefinitions $end
#0
$dumpvars
b0 !
b0 "
1#
x$
0%
1&
x'
1(
1)
1*
0+
0,
0-
0.
0/
00
01
12
03
04
05
06
07
08
19
0:
0;
0<
0=
0>
0?
1@
0A
0B
0C
0D
0E
0F
1G
0H
0I
0J
0K
1L
0M
0N
0O
0P
0Q
0R
1S
0T
0U
1V
0W
0X
0Y
0Z
0[
0\
1]
0^
0_
0`
0a
0b
0c
1d
0e
0f
0g
0h
1i
0j
0k
0l
0m
0n
0o
1p
0q
0r
0s
0t
0u
0v
1w
1x
1y
$end
#40000
b1 !
b1 "
1O
1P
0$
#80000
b11 !
b11 "
b10 !
b10 "
0O
1A
0P
1C
1$
#120000
b11 !
b11 "
1O
1P
0$
#160000
b111 !
b1000011 "
b1000111 "
b101 !
b1000101 "
b100 !
b1000100 "
0O
0A
1J
1F
0P
0C
1H
1$
0G
0V
0y
0#
#200000
b100 "
b101 !
b101 "
1P
1O
0F
0$
1G
1V
1y
1#
#240000
b111 !
b111 "
b110 !
b110 "
0O
1A
0P
1C
1$
#280000
b111 !
b111 "
1O
1P
0$
#320000
b1111 !
b1000000000000000000000111 "
b1000000000000000000001111 "
b1011 !
b1000000000000000000001011 "
b1001 !
b1000000000000000000001001 "
b1000 !
b1000000000000000000001000 "
0O
0A
0J
1>
1Y
0P
0C
0H
1;
1$
0]
0x
0y
0#
#360000
b1000 "
b1001 !
b1001 "
1P
1O
0Y
0$
1]
1x
1y
1#
#400000
b1011 !
b1011 "
b1010 !
b1010 "
0O
1A
0P
1C
1$
#440000
b1011 !
b1011 "
1O
1P
0$
#480000
b1111 !
b1111 "
b1101 !
b1101 "
b1100 !
b1100 "
0O
0A
1J
0P
0C
1H
1$
#520000
b1101 !
b1101 "
1O
1P
0$
#560000
b1111 !
b1111 "
b1110 !
b1110 "
0O
1A
0P
1C
1$
#600000
b1111 !
b1111 "
1O
1P
0$
#640000
b11111 !
b11111 "
b10111 !
b10111 "
b10011 !
b10011 "
b10001 !
b10001 "
b10000 !
b10000 "
0O
0A
0J
0>
1<
0P
0C
0H
0;
1?
1$
#680000
b10001 !
b10001 "
1O
1P
0$
#720000
b10011 !
b10011 "
b10010 !
b10010 "
0O
1A
0P
1C
1$
#760000
b10011 !
b10011 "
1O
1P
0$
#800000
b10111 !
b10111 "
b10101 !
b10101 "
b10100 !
b10100 "
0O
0A
1J
0P
0C
1H
1$
#840000
b10101 !
b10101 "
1O
1P
0$
#880000
b10111 !
b10111 "
b10110 !
b10110 "
0O
1A
0P
1C
1$
#920000
b10111 !
b10111 "
1O
1P
0$
#960000
b11111 !
b11111 "
b11011 !
b11011 "
b11001 !
b11001 "
b11000 !
b11000 "
0O
0A
0J
1>
0P
0C
0H
1;
1$
